<?xml version="1.0" encoding="UTF-8"?>
<svg width="20px" height="20px" viewBox="0 0 20 20" version="1.1" xmlns="http://www.w3.org/2000/svg" xmlns:xlink="http://www.w3.org/1999/xlink">
    <title>Fill 1</title>
    <g id="Page-1" stroke="none" stroke-width="1" fill="none" fill-rule="evenodd">
        <g id="10-Dante_Depot2_L_V4" transform="translate(-671.000000, -1731.000000)" fill="#474948">
            <path d="M686,1739.8 L682.2,1739.8 L682.2,1736 C682.2,1735.33333 681.666667,1734.8 681,1734.8 C680.333333,1734.8 679.8,1735.33333 679.8,1736 L679.8,1739.8 L676,1739.8 C675.333333,1739.8 674.8,1740.33333 674.8,1741 C674.8,1741.66667 675.333333,1742.2 676,1742.2 L679.8,1742.2 L679.8,1746 C679.8,1746.66667 680.333333,1747.2 681,1747.2 C681.666667,1747.2 682.2,1746.66667 682.2,1746 L682.2,1742.2 L686,1742.2 C686.666667,1742.2 687.2,1741.66667 687.2,1741 C687.2,1740.33333 686.666667,1739.8 686,1739.8 M691,1741 C691,1746.53333 686.533333,1751 681,1751 C675.466667,1751 671,1746.53333 671,1741 C671,1735.46667 675.466667,1731 681,1731 C686.533333,1731 691,1735.46667 691,1741" id="Fill-1"></path>
        </g>
    </g>
</svg>