<?xml version="1.0" encoding="UTF-8"?>
<svg width="20px" height="20px" viewBox="0 0 20 20" version="1.1" xmlns="http://www.w3.org/2000/svg" xmlns:xlink="http://www.w3.org/1999/xlink">
    <title>Group 6</title>
    <g id="Page-1" stroke="none" stroke-width="1" fill="none" fill-rule="evenodd">
        <g id="1-Dante_AccueilXL_V4" transform="translate(-126.000000, -489.000000)" fill="#EA3535">
            <g id="Group-6" transform="translate(126.000000, 489.000000)">
                <polygon id="Fill-1" points="8.24229533 20 11.7581572 20 11.7581572 0 8.24229533 0"></polygon>
                <polygon id="Fill-2" points="0 11.7577047 20 11.7577047 20 8.24229533 0 8.24229533"></polygon>
                <polygon id="Fill-3" points="18.3142508 4.17205956 15.8279404 1.6857492 1.6857492 15.8279404 4.17205956 18.3142508"></polygon>
                <path d="M4.17205956,1.6857492 L1.6857492,4.17205956 L15.8279404,18.3142508 L18.3142508,15.8279404 C18.3142508,15.8279404 4.17205956,1.6857492 4.17205956,1.6857492" id="Fill-4"></path>
            </g>
        </g>
    </g>
</svg>