<?xml version="1.0" encoding="UTF-8"?>
<svg width="45px" height="60px" viewBox="0 0 45 60" version="1.1" xmlns="http://www.w3.org/2000/svg" xmlns:xlink="http://www.w3.org/1999/xlink">
    <title>Group 3</title>
    <defs>
        <polygon id="path-1" points="0 0 44.6511628 0 44.6511628 60 0 60"></polygon>
    </defs>
    <g id="Page-1" stroke="none" stroke-width="1" fill="none" fill-rule="evenodd">
        <g id="16-Dante_Depot4_L_V4" transform="translate(-417.000000, -865.000000)">
            <g id="Group-3" transform="translate(417.000000, 865.000000)">
                <mask id="mask-2" fill="white">
                    <use xlink:href="#path-1"></use>
                </mask>
                <g id="Clip-2"></g>
                <path d="M8.37209302,46.0465116 C7.60116279,46.0465116 6.97674419,46.6709302 6.97674419,47.4418605 C6.97674419,48.2127907 7.60116279,48.8372093 8.37209302,48.8372093 L36.2790698,48.8372093 C37.05,48.8372093 37.6744186,48.2127907 37.6744186,47.4418605 C37.6744186,46.6709302 37.05,46.0465116 36.2790698,46.0465116 L8.37209302,46.0465116 Z M8.37209302,34.8837209 C7.60116279,34.8837209 6.97674419,35.5081395 6.97674419,36.2790698 C6.97674419,37.05 7.60116279,37.6744186 8.37209302,37.6744186 L36.2790698,37.6744186 C37.05,37.6744186 37.6744186,37.05 37.6744186,36.2790698 C37.6744186,35.5081395 37.05,34.8837209 36.2790698,34.8837209 L8.37209302,34.8837209 Z M8.37209302,23.7209302 C7.60116279,23.7209302 6.97674419,24.3453488 6.97674419,25.1162791 C6.97674419,25.8872093 7.60116279,26.5116279 8.37209302,26.5116279 L30.6976744,26.5116279 C31.4686047,26.5116279 32.0930233,25.8872093 32.0930233,25.1162791 C32.0930233,24.3453488 31.4686047,23.7209302 30.6976744,23.7209302 L8.37209302,23.7209302 Z M32.0930233,4.75255814 L39.8986047,12.5581395 L32.0930233,12.5581395 L32.0930233,4.75255814 Z M2.79069767,2.79069767 L29.3023256,2.79069767 L29.3023256,13.9534884 C29.3023256,14.6839535 29.9672093,15.3488372 30.6976744,15.3488372 L41.8604651,15.3488372 L41.8604651,57.2093023 L2.79069767,57.2093023 L2.79069767,2.79069767 Z M1.39534884,-3.97132906e-05 C0.645348837,-3.97132906e-05 -0.000697674418,0.766744186 -5.64546554e-07,1.39534884 L-5.64546554e-07,58.6046512 C-5.64546554e-07,59.3351163 0.664883721,60 1.39534884,60 L43.255814,60 C43.9862791,60 44.6511628,59.3351163 44.6511628,58.6046512 L44.6511628,13.9534884 C44.6511628,13.5823256 44.5011628,13.2118605 44.2367442,12.9502326 L31.6786047,0.392093023 C31.4190698,0.141627907 31.0590698,-0.00279069767 30.6976744,-3.97132906e-05 L1.39534884,-3.97132906e-05 Z" id="Fill-1" fill="#474948" mask="url(#mask-2)"></path>
            </g>
        </g>
    </g>
</svg>