<?xml version="1.0" encoding="UTF-8"?>
<svg width="19px" height="19px" viewBox="0 0 19 19" version="1.1" xmlns="http://www.w3.org/2000/svg" xmlns:xlink="http://www.w3.org/1999/xlink">
    <title>2868C01E-5963-4645-887F-C57B26E63090</title>
    <g id="Page-1" stroke="none" stroke-width="1" fill="none" fill-rule="evenodd">
        <g id="35-Dante_RechercheAv_L_V5" transform="translate(-936.000000, -68.000000)" fill="#BA0000">
            <path d="M937.368272,69.305772 C937.978373,68.6956714 938.917198,68.6449894 939.464801,69.1925918 L939.464801,69.1925918 L945.562371,75.2898706 L951.535199,69.3175918 C952.048577,68.8042145 952.905802,68.8166732 953.513658,69.3229433 L953.631728,69.430772 C954.241829,70.0408726 954.292511,70.979698 953.744908,71.5273005 L953.744908,71.5273005 L947.772371,77.4998706 L953.744908,83.4726995 C954.258285,83.9860768 954.245827,84.8433024 953.739557,85.4511577 L953.631728,85.569228 C953.021627,86.1793286 952.082802,86.2300106 951.535199,85.6824082 L951.535199,85.6824082 L945.562371,79.7098706 L939.464801,85.8074082 C938.951423,86.3207855 938.094198,86.3083268 937.486342,85.8020567 L937.368272,85.694228 C936.758171,85.0841274 936.707489,84.145302 937.255092,83.5976995 L937.255092,83.5976995 L943.352371,77.4998706 L937.255092,71.4023005 C936.741715,70.8889232 936.754173,70.0316976 937.260443,69.4238423 Z" id="Fill-1"></path>
        </g>
    </g>
</svg>