<?xml version="1.0" encoding="UTF-8"?>
<svg width="18px" height="15px" viewBox="0 0 18 15" version="1.1" xmlns="http://www.w3.org/2000/svg" xmlns:xlink="http://www.w3.org/1999/xlink">
    <title>Fill 1</title>
    <g id="Page-1" stroke="none" stroke-width="1" fill="none" fill-rule="evenodd">
        <g id="1-Dante_AccueilXL_V4" transform="translate(-350.000000, -1072.000000)" fill="#BA0000">
            <g id="Group-8" transform="translate(238.000000, 1072.000000)">
                <path d="M112.26051,8.21390772 L117.798671,14.6423261 C118.155212,15.0812442 118.859987,15.1201719 119.273644,14.7383952 C119.686955,14.3562615 119.72884,13.6280645 119.345645,13.2137887 L115.343381,8.57104207 L128.961876,8.57104207 C129.535112,8.57104207 130,8.09141064 130,7.49963901 C130,6.90786739 129.535112,6.42823595 128.961876,6.42823595 L115.343381,6.42823595 L119.345645,1.78548935 C119.72884,1.37157063 119.676917,0.644087954 119.263605,0.262311329 C118.849948,-0.119465295 118.155212,-0.0816090534 117.798671,0.356951933 L112.26051,6.7853703 C111.898777,7.30500079 111.927854,7.77177539 112.26051,8.21390772" id="Fill-1" transform="translate(121.000000, 7.500101) scale(-1, 1) translate(-121.000000, -7.500101) "></path>
            </g>
        </g>
    </g>
</svg>