<?xml version="1.0" encoding="UTF-8"?>
<svg width="22px" height="18px" viewBox="0 0 22 18" version="1.1" xmlns="http://www.w3.org/2000/svg" xmlns:xlink="http://www.w3.org/1999/xlink">
    <title>Group 3</title>
    <defs>
        <polygon id="path-1" points="0 0 22 0 22 18 0 18"></polygon>
    </defs>
    <g id="Page-1" stroke="none" stroke-width="1" fill="none" fill-rule="evenodd">
        <g id="1-Dante_AccueilXL_V4" transform="translate(-1098.000000, -48.000000)">
            <g id="Group-3" transform="translate(1098.000000, 48.000000)">
                <mask id="mask-2" fill="white">
                    <use xlink:href="#path-1"></use>
                </mask>
                <g id="Clip-2"></g>
                <path d="M1.53488372,3.32651031 L9.40909302,11.6766914 C10.3108372,12.6322481 11.6733023,12.6306964 12.5747907,11.6766914 L20.4651163,3.32651031 L20.4651163,15.2068821 C20.4651163,15.7388159 20.1361395,16.1379214 19.6976744,16.1379214 L2.30232558,16.1379214 C1.86386047,16.1379214 1.53488372,15.7388159 1.53488372,15.2068821 L1.53488372,3.32651031 Z M2.48625581,1.86198549 L19.5137442,1.86198549 L11.5676512,10.2705117 C11.1913488,10.6683759 10.7917674,10.6680655 10.4164884,10.2705117 L2.48625581,1.86198549 Z M2.30232558,-9.31039298e-05 C1.04013953,-9.31039298e-05 0,1.26177549 0,2.79302479 L0,15.2068821 C0,16.7381314 1.04013953,18 2.30232558,18 L19.6976744,18 C20.9598605,18 22,16.7381314 22,15.2068821 L22,2.79302479 C22,1.26177549 20.9598605,-9.31039298e-05 19.6976744,-9.31039298e-05 L2.30232558,-9.31039298e-05 Z" id="Fill-1" fill="#474948" mask="url(#mask-2)"></path>
            </g>
        </g>
    </g>
</svg>