<?xml version="1.0" encoding="UTF-8"?>
<svg width="20px" height="20px" viewBox="0 0 20 20" version="1.1" xmlns="http://www.w3.org/2000/svg" xmlns:xlink="http://www.w3.org/1999/xlink">
    <title>Group 5</title>
    <g id="Page-1" stroke="none" stroke-width="1" fill="none" fill-rule="evenodd">
        <g id="47-Dante_ScienceOuverte2_L_V5" transform="translate(-56.000000, -215.000000)" fill="#BA0000">
            <g id="Group-5" transform="translate(56.000000, 215.000000)">
                <polygon id="Fill-1" points="0 9 9 9 9 0 0 0"></polygon>
                <polygon id="Fill-2" points="0 20 9 20 9 11 0 11"></polygon>
                <polygon id="Fill-3" points="11 9 20 9 20 0 11 0"></polygon>
                <polygon id="Fill-4" points="11 20 20 20 20 11 11 11"></polygon>
            </g>
        </g>
    </g>
</svg>