<?xml version="1.0" encoding="UTF-8"?>
<svg width="12px" height="40px" viewBox="0 0 12 40" version="1.1" xmlns="http://www.w3.org/2000/svg" xmlns:xlink="http://www.w3.org/1999/xlink">
    <!-- Generator: Sketch 51.3 (57544) - http://www.bohemiancoding.com/sketch -->
    <title>Fill 1</title>
    <desc>Created with Sketch.</desc>
    <defs></defs>
    <g id="Page-1" stroke="none" stroke-width="1" fill="none" fill-rule="evenodd">
        <g id="1_IAI_accueil_XL" transform="translate(-508.000000, -101.000000)" fill="#CDDAD5">
            <path d="M519.986,101 L509.759,101 C509.064,101 508.443,101.423 508.189,102.071 C507.937,102.717 507.937,139.208 508.189,139.853 C508.443,140.499 509.067,140.924 509.759,140.924 L519.986,140.924 L519.986,101 Z" id="Fill-1"></path>
        </g>
    </g>
</svg>