<?xml version="1.0" encoding="UTF-8"?>
<svg width="23px" height="15px" viewBox="0 0 23 15" version="1.1" xmlns="http://www.w3.org/2000/svg" xmlns:xlink="http://www.w3.org/1999/xlink">
    <title>Group 3</title>
    <defs>
        <polygon id="path-1" points="0 0 22.5882353 0 22.5882353 15 0 15"></polygon>
    </defs>
    <g id="Symbols" stroke="none" stroke-width="1" fill="none" fill-rule="evenodd">
        <g id="etiquette-nonc-consultable" transform="translate(-3.000000, -3.000000)">
            <g id="Group-3" transform="translate(3.000000, 3.000000)">
                <mask id="mask-2" fill="white">
                    <use xlink:href="#path-1"></use>
                </mask>
                <g id="Clip-2"></g>
                <path d="M18.1960784,0 L3.29411765,13.9705882 L4.39215686,15 L19.2941176,1.02941176 L18.1960784,0 Z M18.1960784,3.60294118 L16.7058824,5 C18.9019608,5.95588235 20.4705882,7.13235294 20.4705882,7.13235294 C20.4705882,7.13235294 18.5098039,8.82352941 15.8431373,10.0735294 C16.4705882,9.19117647 16.8627451,8.16176471 16.8627451,7.05882353 C16.8627451,6.39705882 16.7058824,5.80882353 16.4705882,5.22058824 L15.2156863,6.32352941 C15.2941176,6.54411765 15.2941176,6.83823529 15.2941176,7.05882353 C15.2941176,9.26470588 13.4117647,11.0294118 11.0588235,11.0294118 C10.745098,11.0294118 10.5098039,11.0294118 10.1960784,10.9558824 L8.31372549,12.7205882 C9.09803922,12.9411765 9.96078431,13.0147059 10.8235294,13.0147059 C17.0980392,13.0147059 22.5882353,7.13235294 22.5882353,7.13235294 C22.5882353,7.13235294 20.8627451,5.22058824 18.1960784,3.60294118 L18.1960784,3.60294118 Z M16.2352941,4.85294118 C16.3137255,5 16.3137255,5.07352941 16.3921569,5.22058824 L16.627451,5 C16.5490196,4.92647059 16.3921569,4.85294118 16.2352941,4.85294118 L16.2352941,4.85294118 Z M5.96078431,10 C3.76470588,8.75 2.19607843,7.13235294 2.19607843,7.13235294 C2.19607843,7.13235294 3.76470588,5.88235294 5.96078431,4.85294118 C5.64705882,5.51470588 5.41176471,6.32352941 5.41176471,7.05882353 C5.41176471,8.01470588 5.7254902,8.97058824 6.19607843,9.77941176 L7.29411765,8.75 C7.05882353,8.23529412 6.90196078,7.64705882 6.90196078,7.05882353 C6.90196078,5.73529412 7.60784314,4.63235294 8.62745098,3.89705882 C9.41176471,3.67647059 10.1960784,3.60294118 11.0588235,3.60294118 C11.6078431,3.60294118 12.1568627,3.67647059 12.7058824,3.75 L14.6666667,1.91176471 C13.4901961,1.54411765 12.2352941,1.25 10.9803922,1.25 C4.70588235,1.25 0,7.13235294 0,7.13235294 C0,7.13235294 1.88235294,9.41176471 4.78431373,11.1764706 L5.96078431,10 Z M8.47058824,7.05882353 C8.47058824,7.20588235 8.47058824,7.42647059 8.54901961,7.57352941 L11.6078431,4.70588235 C11.4509804,4.70588235 11.2941176,4.63235294 11.0588235,4.63235294 C9.64705882,4.63235294 8.47058824,5.73529412 8.47058824,7.05882353 L8.47058824,7.05882353 Z M13.5686275,7.86764706 L12,9.33823529 C12.7058824,9.11764706 13.254902,8.60294118 13.5686275,7.86764706 L13.5686275,7.86764706 Z" id="Fill-1" fill="#565A59" mask="url(#mask-2)"></path>
            </g>
        </g>
    </g>
</svg>