<?xml version="1.0" encoding="UTF-8"?>
<svg width="16px" height="17px" viewBox="0 0 16 17" version="1.1" xmlns="http://www.w3.org/2000/svg" xmlns:xlink="http://www.w3.org/1999/xlink">
    <title>Fill 1</title>
    <g id="Page-1" stroke="none" stroke-width="1" fill="none" fill-rule="evenodd">
        <g id="13-Dante_Depot3_L_V4" transform="translate(-855.000000, -442.000000)" fill="#BA0000">
            <g id="Group-4" transform="translate(836.000000, 435.000000)">
                <path d="M23.8311688,7 L23.8311688,9.07777778 L21.4150812,9.07777778 L19,9.07777778 L19,10.2111111 L21.4764773,10.2111111 L22.2207792,24 L31.2792208,24 L32.0230195,10.2111111 L34.5,10.2111111 L34.5,9.07777778 L32.0844156,9.07777778 L29.6688312,9.07777778 L29.6688312,7 L23.8311688,7 Z M25.0384578,9.07777778 L28.4605357,9.07777778 L28.4605357,8.13333333 L25.0384578,8.13333333 L25.0384578,9.07777778 Z M30.8137175,10.2111111 L30.1308117,22.8666667 L23.3686851,22.8666667 L22.6857792,10.2111111 L23.8311688,10.2111111 L29.6688312,10.2111111 L30.8137175,10.2111111 Z M27.4545455,20.7888889 L28.6618344,20.7888889 L28.6618344,12.1 L27.4545455,12.1 L27.4545455,20.7888889 Z M24.6358604,20.7888889 L25.8436526,20.7888889 L25.8436526,12.1 L24.6358604,12.1 L24.6358604,20.7888889 Z" id="Fill-1"></path>
            </g>
        </g>
    </g>
</svg>