<?xml version="1.0" encoding="UTF-8"?>
<svg width="25px" height="25px" viewBox="0 0 25 25" version="1.1" xmlns="http://www.w3.org/2000/svg" xmlns:xlink="http://www.w3.org/1999/xlink">
    <title>Group 5</title>
    <g id="Page-1" stroke="none" stroke-width="1" fill="none" fill-rule="evenodd">
        <g id="1-Dante_AccueilXL_V4" transform="translate(-1257.000000, -31.000000)" fill="#474948">
            <g id="Group-5" transform="translate(1257.000000, 31.000000)">
                <path d="M12.5,25 C5.59625,25 0,19.40375 0,12.5 C0,5.59625 5.59625,0 12.5,0 C19.40375,0 25,5.59625 25,12.5 C25,19.40375 19.40375,25 12.5,25 M12.5,23.125 C18.3675,23.125 23.125,18.3675 23.125,12.5 C23.125,6.6325 18.3675,1.875 12.5,1.875 C6.6325,1.875 1.875,6.6325 1.875,12.5 C1.875,18.3675 6.6325,23.125 12.5,23.125" id="Fill-1"></path>
                <path d="M6.920625,18.909375 C6.559375,19.279375 5.965625,19.286875 5.594375,18.924375 C5.224375,18.563125 5.218125,17.969375 5.579375,17.599375 C5.893125,17.278125 6.475625,16.844375 7.345625,16.425625 C8.748125,15.749375 10.464375,15.348125 12.500625,15.348125 C14.535625,15.348125 16.251875,15.749375 17.654375,16.425625 C18.524375,16.844375 19.106875,17.278125 19.420625,17.599375 C19.781875,17.969375 19.775625,18.563125 19.405625,18.924375 C19.034375,19.286875 18.440625,19.279375 18.079375,18.909375 C17.911875,18.738125 17.503125,18.434375 16.840625,18.114375 C15.689375,17.559375 14.250625,17.223125 12.500625,17.223125 C10.749375,17.223125 9.310625,17.559375 8.159375,18.114375 C7.496875,18.434375 7.088125,18.738125 6.920625,18.909375 M16.250625,9.999375 C16.250625,12.074375 14.575625,13.749375 12.500625,13.749375 C10.424375,13.749375 8.750625,12.074375 8.750625,9.999375 C8.750625,7.924375 10.424375,6.249375 12.500625,6.249375 C14.575625,6.249375 16.250625,7.924375 16.250625,9.999375 M14.375625,9.999375 C14.375625,8.960625 13.539375,8.124375 12.500625,8.124375 C11.460625,8.124375 10.625625,8.960625 10.625625,9.999375 C10.625625,11.039375 11.460625,11.874375 12.500625,11.874375 C13.539375,11.874375 14.375625,11.039375 14.375625,9.999375" id="Fill-3"></path>
            </g>
        </g>
    </g>
</svg>