<?xml version="1.0" encoding="UTF-8"?>
<svg width="19px" height="19px" viewBox="0 0 19 19" version="1.1" xmlns="http://www.w3.org/2000/svg" xmlns:xlink="http://www.w3.org/1999/xlink">
    <title>Fill 1</title>
    <g id="Page-1" stroke="none" stroke-width="1" fill="none" fill-rule="evenodd">
        <g id="5-Dante_Menu_S_V4" transform="translate(-12.000000, -15.000000)" fill="#EA3535">
            <path d="M13.368272,16.305772 C13.9783726,15.6956714 14.917198,15.6449894 15.4648005,16.1925918 L15.4648005,16.1925918 L21.5623706,22.2898706 L27.5351995,16.3175918 C28.0485768,15.8042145 28.9058024,15.8166732 29.5136577,16.3229433 L29.631728,16.430772 C30.2418286,17.0408726 30.2925106,17.979698 29.7449082,18.5273005 L29.7449082,18.5273005 L23.7723706,24.4998706 L29.7449082,30.4726995 C30.2582855,30.9860768 30.2458268,31.8433024 29.7395567,32.4511577 L29.631728,32.569228 C29.0216274,33.1793286 28.082802,33.2300106 27.5351995,32.6824082 L27.5351995,32.6824082 L21.5623706,26.7098706 L15.4648005,32.8074082 C14.9514232,33.3207855 14.0941976,33.3083268 13.4863423,32.8020567 L13.368272,32.694228 C12.7581714,32.0841274 12.7074894,31.145302 13.2550918,30.5976995 L13.2550918,30.5976995 L19.3523706,24.4998706 L13.2550918,18.4023005 C12.7417145,17.8889232 12.7541732,17.0316976 13.2604433,16.4238423 Z" id="Fill-1"></path>
        </g>
    </g>
</svg>