<?xml version="1.0" encoding="UTF-8"?>
<svg width="64px" height="99px" viewBox="0 0 64 99" version="1.1" xmlns="http://www.w3.org/2000/svg" xmlns:xlink="http://www.w3.org/1999/xlink">
    <title>Fill 1</title>
    <g id="Page-1" stroke="none" stroke-width="1" fill="none" fill-rule="evenodd">
        <g id="41-Dante_DemandeDocument_L_V5" transform="translate(-466.000000, -111.000000)" fill="#CDDAD5">
            <g id="pop-in" transform="translate(200.000000, 58.000000)">
                <path d="M310.878986,93.92 L283.16,93.92 L283.16,75.6537182 C283.16,68.2571397 289.377333,62.24 297.02,62.24 C304.662667,62.24 310.88,68.2571397 310.88,75.6537182 L310.88,93.92 L310.878986,93.92 Z M304.28,136.16 L289.76,136.16 L292.558185,121.897156 C290.856354,120.520361 289.76,118.375491 289.76,115.964368 C289.76,111.810228 293.01086,108.44 297.02,108.44 C301.02914,108.44 304.28,111.809238 304.28,115.964368 C304.28,118.376481 303.184601,120.521351 301.481815,121.897156 L304.28,136.16 Z M326.248207,94.63544 L320.347209,94.63544 L320.347209,76.20362 C320.347209,63.40886 310.006693,53 297.295943,53 C284.585193,53 274.245661,63.40886 274.245661,76.20362 L274.245661,94.63544 L269.112776,94.63544 C267.393619,94.63544 266,96.03728 266,97.7678 L266,148.86764 C266,150.59816 267.393619,152 269.112776,152 L326.248207,152 C327.967364,152 329.36,150.59816 329.36,148.86764 L329.36,97.7678 C329.36,96.03728 327.967364,94.63544 326.248207,94.63544 L326.248207,94.63544 Z" id="Fill-1"></path>
            </g>
        </g>
    </g>
</svg>