<?xml version="1.0" encoding="iso-8859-1"?>
<svg xmlns="http://www.w3.org/2000/svg" viewBox="0 0 32 32" fill="none" stroke="#000000" stroke-linecap="square" stroke-linejoin="square" stroke-width="4">
   <g transform="scale(0.5)" transform-origin="50% 50%" >
      <path d="M2 20 L12 28 30 4"></path>
   </g>
</svg>