<?xml version="1.0" encoding="UTF-8"?>
<svg width="7px" height="11px" viewBox="0 0 7 11" version="1.1" xmlns="http://www.w3.org/2000/svg" xmlns:xlink="http://www.w3.org/1999/xlink">
    <title>chevron déroulant</title>
    <g transform="rotate(-90)">
        <g id="Page-1" stroke="none" stroke-width="1" fill="none" fill-rule="evenodd" transform="translate(-11.7, 0)">
            <g id="28-Dante_Consulter_L_V5" transform="translate(-310.000000, -293.000000)" fill="#9CA19F">
                <g id="Type-Doc" transform="translate(42.000000, 276.000000)">
                    <g id="chevron-déroulant" transform="translate(268.739130, 17.304348)">
                        <path d="M4.39869668,0.271758437 L0.271919431,4.39609236 C-0.0906398104,4.75843694 -0.0906398104,5.35523979 0.271919431,5.71758437 C0.634478673,6.07992895 1.23163507,6.07992895 1.59419431,5.71758437 L5.05983412,2.26465364 L8.52547393,5.72824156 C8.88803318,6.09058615 9.48518957,6.09058615 9.84774882,5.72824156 C10.0290284,5.54706927 10.125,5.30195382 10.125,5.06749556 C10.125,4.82238011 10.0290284,4.58792185 9.84774882,4.40674956 L5.72097156,0.271758437 C5.35841232,-0.0905861456 4.76125592,-0.0905861456 4.39869668,0.271758437" id="Fill-1"></path>
                    </g>
                </g>
            </g>
        </g>
    </g>
</svg>