<?xml version="1.0" encoding="UTF-8"?>
<svg width="65px" height="65px" viewBox="0 0 65 65" version="1.1" xmlns="http://www.w3.org/2000/svg" xmlns:xlink="http://www.w3.org/1999/xlink">
    <title>icone-gris</title>
    <g id="Page-1" stroke="none" stroke-width="1" fill="none" fill-rule="evenodd">
        <g id="38-Dante_Document_L_V6" transform="translate(-755.000000, -393.000000)">
            <g id="Group-8" transform="translate(637.000000, 393.000000)">
                <g id="icone-gris" transform="translate(118.000000, 0.000000)">
                    <circle id="Oval" fill="#EA3535" cx="32.3076923" cy="32.3076923" r="32.3076923"></circle>
                    <path d="M24.9086544,41.3971487 C24.4424825,41.3971487 24.0649044,41.7717993 24.0649044,42.2343569 C24.0649044,42.6969144 24.4424825,43.0715651 24.9086544,43.0715651 L41.783654,43.0715651 C42.2498258,43.0715651 42.627404,42.6969144 42.627404,42.2343569 C42.627404,41.7717993 42.2498258,41.3971487 41.783654,41.3971487 L24.9086544,41.3971487 Z M24.9086544,34.699483 C24.4424825,34.699483 24.0649044,35.0741337 24.0649044,35.5366912 C24.0649044,35.9992487 24.4424825,36.3738994 24.9086544,36.3738994 L41.783654,36.3738994 C42.2498258,36.3738994 42.627404,35.9992487 42.627404,35.5366912 C42.627404,35.0741337 42.2498258,34.699483 41.783654,34.699483 L24.9086544,34.699483 Z M24.9086544,28.0018173 C24.4424825,28.0018173 24.0649044,28.376468 24.0649044,28.8390255 C24.0649044,29.3015831 24.4424825,29.6762337 24.9086544,29.6762337 L38.4086541,29.6762337 C38.8748259,29.6762337 39.252404,29.3015831 39.252404,28.8390255 C39.252404,28.376468 38.8748259,28.0018173 38.4086541,28.0018173 L24.9086544,28.0018173 Z M39.252404,16.6208089 L43.9723414,21.3041516 L39.252404,21.3041516 L39.252404,16.6208089 Z M21.5336545,15.4436942 L37.5649041,15.4436942 L37.5649041,22.1413599 C37.5649041,22.5796384 37.9669509,22.9785681 38.4086541,22.9785681 L45.1586539,22.9785681 L45.1586539,48.0948144 L21.5336545,48.0948144 L21.5336545,15.4436942 Z M20.6899045,13.7692539 C20.2363889,13.7692539 19.8457327,14.2293237 19.8461542,14.606486 L19.8461542,48.9320226 C19.8461542,49.3703011 20.2482014,49.7692308 20.6899045,49.7692308 L46.0024039,49.7692308 C46.444107,49.7692308 46.8461542,49.3703011 46.8461542,48.9320226 L46.8461542,22.1413599 C46.8461542,21.9186625 46.7554507,21.6963837 46.5955601,21.5394072 L39.0018103,14.0045333 C38.8448728,13.8542544 38.6271853,13.7676033 38.4086541,13.7692539 L20.6899045,13.7692539 Z" id="Fill-1" stroke="#FFFFFF" fill="#FFFFFF"></path>
                </g>
            </g>
        </g>
    </g>
</svg>