<?xml version="1.0" encoding="UTF-8"?>
<svg width="17px" height="20px" viewBox="0 0 17 20" version="1.1" xmlns="http://www.w3.org/2000/svg" xmlns:xlink="http://www.w3.org/1999/xlink">
    <title>Export</title>
    <defs>
        <polygon id="path-1" points="8.8817842e-16 0 11.88575 0 11.88575 10.0511754 8.8817842e-16 10.0511754"></polygon>
    </defs>
    <g id="Page-1" stroke="none" stroke-width="1" fill="none" fill-rule="evenodd">
        <g id="32-Dante_Recherche_L_V5" transform="translate(-400.000000, -287.000000)">
            <g id="barre1" transform="translate(387.000000, 273.000000)">
                <g id="export" transform="translate(13.000000, 9.000000)">
                    <g id="Export" transform="translate(0.000000, 5.000000)">
                        <path d="M2,20 L12.45,20 C13.5545,20 14.45,19.1045 14.45,18 L14.45,16 C14.45,15.44775 14.00225,15 13.45,15 C12.89775,15 12.45,15.44775 12.45,16 L12.45,18 L2,18 L2,2 L12.45,2 L12.45,4 C12.45,4.55225 12.89775,5 13.45,5 C14.00225,5 14.45,4.55225 14.45,4 L14.45,2 C14.45,0.8955 13.5545,0 12.45,0 L2,0 C0.8955,0 0,0.8955 0,2 L0,18 C0,19.1045 0.8955,20 2,20" id="Fill-1" fill="#474948"></path>
                        <g id="Group-5" transform="translate(4.575000, 4.974412)">
                            <mask id="mask-2" fill="white">
                                <use xlink:href="#path-1"></use>
                            </mask>
                            <g id="Clip-4"></g>
                            <path d="M7.5025,0.288087722 C7.109,-0.0999122784 6.4755,-0.0954122784 6.0875,0.298087722 C5.6995,0.691587722 5.704,1.32508772 6.0975,1.71308772 L8.445,4.02558772 L1,4.02558772 C0.44775,4.02558772 8.8817842e-16,4.47333772 8.8817842e-16,5.02558772 C8.8817842e-16,5.57783772 0.44775,6.02558772 1,6.02558772 L8.445,6.02558772 L6.1,8.33808772 C5.7065,8.72608772 5.702,9.35958772 6.09,9.75308772 C6.478,10.1465877 7.1115,10.1510877 7.505,9.76308772 L11.5875,5.73808772 C11.981,5.35058772 11.98575,4.71733772 11.59825,4.32383772 C11.59475,4.32033772 11.59125,4.31658772 11.5875,4.31308772 L7.5025,0.288087722 Z" id="Fill-3" fill="#474948" mask="url(#mask-2)"></path>
                        </g>
                    </g>
                </g>
            </g>
        </g>
    </g>
</svg>