<?xml version="1.0" encoding="UTF-8"?>
<svg width="19px" height="19px" viewBox="0 0 19 19" version="1.1" xmlns="http://www.w3.org/2000/svg" xmlns:xlink="http://www.w3.org/1999/xlink">
    <title>Fill 1</title>
    <g id="Page-1" stroke="none" stroke-width="1" fill="none" fill-rule="evenodd">
        <g id="4-Dante_Accueil_S_V4" transform="translate(-209.000000, -15.000000)" fill="#474948">
            <path d="M216.312059,28.0848041 C213.128967,28.0848041 210.539314,25.4953627 210.539314,22.3120592 C210.539314,19.1291777 213.128756,16.5393142 216.312059,16.5393142 C219.495363,16.5393142 222.084804,19.1289667 222.084804,22.3120592 C222.084593,25.4953627 219.495152,28.0848041 216.312059,28.0848041 L216.312059,28.0848041 Z M227.993458,32.4744033 L222.180193,26.661561 C223.083227,25.4453466 223.624118,23.9431751 223.624118,22.3120592 C223.624118,18.2742611 220.350701,15 216.312059,15 C212.273839,15 209,18.2742611 209,22.3120592 C209,26.3502793 212.273839,29.6241184 216.312059,29.6241184 C217.940221,29.6241184 219.438171,29.0859704 220.653542,28.1863136 L226.46765,34 L227.993458,32.4744033 Z" id="Fill-1"></path>
        </g>
    </g>
</svg>