<?xml version="1.0" encoding="UTF-8"?>
<svg width="24px" height="18px" viewBox="0 0 24 18" version="1.1" xmlns="http://www.w3.org/2000/svg" xmlns:xlink="http://www.w3.org/1999/xlink">
    <title>Fill 1</title>
    <g id="Page-1" stroke="none" stroke-width="1" fill="none" fill-rule="evenodd">
        <g id="49-Dante_ScienceOuverte2_S_V5" transform="translate(-18.000000, -73.000000)" fill="#474948">
            <g id="filtres" transform="translate(9.000000, 64.000000)">
                <path d="M21.8571429,10.2857143 C21.8571429,9.576 21.2811429,9 20.5714286,9 L10.2857143,9 C9.576,9 9,9.576 9,10.2857143 C9,10.9954286 9.576,11.5714286 10.2857143,11.5714286 L20.5714286,11.5714286 C21.2811429,11.5714286 21.8571429,10.9954286 21.8571429,10.2857143 M27,18 C27,17.2902857 26.424,16.7142857 25.7142857,16.7142857 L10.2857143,16.7142857 C9.576,16.7142857 9,17.2902857 9,18 C9,18.7097143 9.576,19.2857143 10.2857143,19.2857143 L25.7142857,19.2857143 C26.424,19.2857143 27,18.7097143 27,18 M30.8571429,27 L10.2857143,27 C9.576,27 9,26.424 9,25.7142857 C9,25.0045714 9.576,24.4285714 10.2857143,24.4285714 L30.8571429,24.4285714 C31.5668571,24.4285714 32.1428571,25.0045714 32.1428571,25.7142857 C32.1428571,26.424 31.5668571,27 30.8571429,27" id="Fill-1"></path>
            </g>
        </g>
    </g>
</svg>