<?xml version="1.0" encoding="UTF-8"?>
<svg width="30px" height="45px" viewBox="0 0 30 45" version="1.1" xmlns="http://www.w3.org/2000/svg" xmlns:xlink="http://www.w3.org/1999/xlink">
    <title>Group 7</title>
    <g id="Page-1" stroke="none" stroke-width="1" fill="none" fill-rule="evenodd">
        <g id="1-Dante_AccueilXL_V4" transform="translate(-1380.000000, -1248.000000)" fill="#ABACAC">
            <g id="Group-7" transform="translate(1380.000000, 1248.000000)">
                <path d="M28,30 C28,37.2 22.2,43 15,43 C7.8,43 2,37.2 2,30 L2,15 C2,7.8 7.8,2 15,2 C22.2,2 28,7.8 28,15 L28,30 Z M15,0 C6.7,0 0,6.7 0,15 L0,30 C0,38.3 6.7,45 15,45 C23.3,45 30,38.3 30,30 L30,15 C30,6.7 23.3,0 15,0 L15,0 Z" id="Fill-1"></path>
                <path d="M15.7,17.8 C15.3,17.4 14.7,17.4 14.3,17.8 L7.8,24.3 C7.4,24.7 7.4,25.3 7.8,25.7 C8.2,26.1 8.8,26.1 9.2,25.7 L15,19.9 L20.8,25.7 C21.2,26.1 21.8,26.1 22.2,25.7 C22.6,25.3 22.6,24.7 22.2,24.3 L15.7,17.8 Z" id="Fill-3"></path>
                <path d="M15,7 C16.3805,7 17.5,8.1195 17.5,9.5 C17.5,10.8805 16.3805,12 15,12 C13.6195,12 12.5,10.8805 12.5,9.5 C12.5,8.1195 13.6195,7 15,7" id="Fill-5"></path>
            </g>
        </g>
    </g>
</svg>